[
  {
    "pays":"PRY",
    "date":1996,
    "evolution":-2.739726027,
    "dep":373.2394366,
    "arr_brut":426000,
    "dep_brut":159,
    "pop":4.91,
    "nom_complet":"Republica del Paraguay",
    "superficie":"406 752 km2",
    "etat":"Republique",
    "langue":"Espagnol et Guarani"
  },
  {
    "pays":"PRY",
    "date":1997,
    "evolution":-7.276995305,
    "dep":367.0886076,
    "arr_brut":395000,
    "dep_brut":145,
    "pop":5.02,
    "nom_complet":"Republica del Paraguay",
    "superficie":"406 752 km2",
    "etat":"Republique",
    "langue":"Espagnol et Guarani"
  },
  {
    "pays":"PRY",
    "date":1998,
    "evolution":-11.39240506,
    "dep":365.7142857,
    "arr_brut":350000,
    "dep_brut":128,
    "pop":5.13,
    "nom_complet":"Republica del Paraguay",
    "superficie":"406 752 km2",
    "etat":"Republique",
    "langue":"Espagnol et Guarani"
  },
  {
    "pays":"PRY",
    "date":1999,
    "evolution":-23.14285714,
    "dep":353.1598513,
    "arr_brut":269000,
    "dep_brut":95,
    "pop":5.24,
    "nom_complet":"Republica del Paraguay",
    "superficie":"406 752 km2",
    "etat":"Republique",
    "langue":"Espagnol et Guarani"
  },
  {
    "pays":"PRY",
    "date":2000,
    "evolution":7.434944238,
    "dep":304.4982699,
    "arr_brut":289000,
    "dep_brut":88,
    "pop":5.35,
    "nom_complet":"Republica del Paraguay",
    "superficie":"406 752 km2",
    "etat":"Republique",
    "langue":"Espagnol et Guarani"
  },
  {
    "pays":"PRY",
    "date":2001,
    "evolution":-3.460207612,
    "dep":326.1648746,
    "arr_brut":279000,
    "dep_brut":91,
    "pop":5.46,
    "nom_complet":"Republica del Paraguay",
    "superficie":"406 752 km2",
    "etat":"Republique",
    "langue":"Espagnol et Guarani"
  },
  {
    "pays":"PRY",
    "date":2002,
    "evolution":-10.39426523,
    "dep":304,
    "arr_brut":250000,
    "dep_brut":76,
    "pop":5.57,
    "nom_complet":"Republica del Paraguay",
    "superficie":"406 752 km2",
    "etat":"Republique",
    "langue":"Espagnol et Guarani"
  },
  {
    "pays":"PRY",
    "date":2003,
    "evolution":7.2,
    "dep":302.238806,
    "arr_brut":268000,
    "dep_brut":81,
    "pop":5.68,
    "nom_complet":"Republica del Paraguay",
    "superficie":"406 752 km2",
    "etat":"Republique",
    "langue":"Espagnol et Guarani"
  },
  {
    "pays":"PRY",
    "date":2004,
    "evolution":15.29850746,
    "dep":281.5533981,
    "arr_brut":309000,
    "dep_brut":87,
    "pop":5.79,
    "nom_complet":"Republica del Paraguay",
    "superficie":"406 752 km2",
    "etat":"Republique",
    "langue":"Espagnol et Guarani"
  },
  {
    "pays":"PRY",
    "date":2005,
    "evolution":10.35598706,
    "dep":281.5249267,
    "arr_brut":341000,
    "dep_brut":96,
    "pop":5.9,
    "nom_complet":"Republica del Paraguay",
    "superficie":"406 752 km2",
    "etat":"Republique",
    "langue":"Espagnol et Guarani"
  },
  {
    "pays":"PRY",
    "date":2006,
    "evolution":13.7829912,
    "dep":288.6597938,
    "arr_brut":388000,
    "dep_brut":112,
    "pop":6.01,
    "nom_complet":"Republica del Paraguay",
    "superficie":"406 752 km2",
    "etat":"Republique",
    "langue":"Espagnol et Guarani"
  },
  {
    "pays":"PRY",
    "date":2007,
    "evolution":7.216494845,
    "dep":290.8653846,
    "arr_brut":416000,
    "dep_brut":121,
    "pop":6.13,
    "nom_complet":"Republica del Paraguay",
    "superficie":"406 752 km2",
    "etat":"Republique",
    "langue":"Espagnol et Guarani"
  },
  {
    "pays":"PRY",
    "date":2008,
    "evolution":2.884615385,
    "dep":299.0654206,
    "arr_brut":428000,
    "dep_brut":128,
    "pop":6.24,
    "nom_complet":"Republica del Paraguay",
    "superficie":"406 752 km2",
    "etat":"Republique",
    "langue":"Espagnol et Guarani"
  },
  {
    "pays":"PRY",
    "date":2009,
    "evolution":2.570093458,
    "dep":512.5284738,
    "arr_brut":439000,
    "dep_brut":225,
    "pop":6.35,
    "nom_complet":"Republica del Paraguay",
    "superficie":"406 752 km2",
    "etat":"Republique",
    "langue":"Espagnol et Guarani"
  },
  {
    "pays":"PRY",
    "date":2010,
    "evolution":5.922551253,
    "dep":522.5806452,
    "arr_brut":465000,
    "dep_brut":243,
    "pop":6.46,
    "nom_complet":"Republica del Paraguay",
    "superficie":"406 752 km2",
    "etat":"Republique",
    "langue":"Espagnol et Guarani"
  },
  {
    "pays":"PRY",
    "date":2011,
    "evolution":12.68817204,
    "dep":498.0916031,
    "arr_brut":524000,
    "dep_brut":261,
    "pop":6.57,
    "nom_complet":"Republica del Paraguay",
    "superficie":"406 752 km2",
    "etat":"Republique",
    "langue":"Espagnol et Guarani"
  },
  {
    "pays":"PRY",
    "date":2012,
    "evolution":10.49618321,
    "dep":502.5906736,
    "arr_brut":579000,
    "dep_brut":291,
    "pop":6.69,
    "nom_complet":"Republica del Paraguay",
    "superficie":"406 752 km2",
    "etat":"Republique",
    "langue":"Espagnol et Guarani"
  },
  {
    "pays":"PRY",
    "date":2013,
    "evolution":5.354058722,
    "dep":490.1639344,
    "arr_brut":610000,
    "dep_brut":299,
    "pop":6.8,
    "nom_complet":"Republica del Paraguay",
    "superficie":"406 752 km2",
    "etat":"Republique",
    "langue":"Espagnol et Guarani"
  },
  {
    "pays":"PER",
    "date":1996,
    "evolution":-21.92066806,
    "dep":1323.630137,
    "arr_brut":584000,
    "dep_brut":773,
    "pop":24.37,
    "nom_complet":"Republica del Peru",
    "superficie":"1 285 315 km2",
    "etat":"Republique",
    "langue":"Espagnol. Quechua et Aymara"
  },
  {
    "pays":"PER",
    "date":1997,
    "evolution":-11.13013699,
    "dep":1403.697997,
    "arr_brut":649000,
    "dep_brut":911,
    "pop":24.79,
    "nom_complet":"Republica del Peru",
    "superficie":"1 285 315 km2",
    "etat":"Republique",
    "langue":"Espagnol. Quechua et Aymara"
  },
  {
    "pays":"PER",
    "date":1998,
    "evolution":-11.86440678,
    "dep":1304.407713,
    "arr_brut":726000,
    "dep_brut":947,
    "pop":25.21,
    "nom_complet":"Republica del Peru",
    "superficie":"1 285 315 km2",
    "etat":"Republique",
    "langue":"Espagnol. Quechua et Aymara"
  },
  {
    "pays":"PER",
    "date":1999,
    "evolution":4.407713499,
    "dep":1312.680115,
    "arr_brut":694000,
    "dep_brut":911,
    "pop":25.61,
    "nom_complet":"Republica del Peru",
    "superficie":"1 285 315 km2",
    "etat":"Republique",
    "langue":"Espagnol. Quechua et Aymara"
  },
  {
    "pays":"PER",
    "date":2000,
    "evolution":-15.27377522,
    "dep":1076.25,
    "arr_brut":800000,
    "dep_brut":861,
    "pop":26,
    "nom_complet":"Republica del Peru",
    "superficie":"1 285 315 km2",
    "etat":"Republique",
    "langue":"Espagnol. Quechua et Aymara"
  },
  {
    "pays":"PER",
    "date":2001,
    "evolution":-12.625,
    "dep":846.8368479,
    "arr_brut":901000,
    "dep_brut":763,
    "pop":26.37,
    "nom_complet":"Republica del Peru",
    "superficie":"1 285 315 km2",
    "etat":"Republique",
    "langue":"Espagnol. Quechua et Aymara"
  },
  {
    "pays":"PER",
    "date":2002,
    "evolution":-18.09100999,
    "dep":785.7142857,
    "arr_brut":1064000,
    "dep_brut":836,
    "pop":26.73,
    "nom_complet":"Republica del Peru",
    "superficie":"1 285 315 km2",
    "etat":"Republique",
    "langue":"Espagnol. Quechua et Aymara"
  },
  {
    "pays":"PER",
    "date":2003,
    "evolution":-6.766917293,
    "dep":900.528169,
    "arr_brut":1136000,
    "dep_brut":1023,
    "pop":27.07,
    "nom_complet":"Republica del Peru",
    "superficie":"1 285 315 km2",
    "etat":"Republique",
    "langue":"Espagnol. Quechua et Aymara"
  },
  {
    "pays":"PER",
    "date":2004,
    "evolution":-18.83802817,
    "dep":912.5925926,
    "arr_brut":1350000,
    "dep_brut":1232,
    "pop":27.4,
    "nom_complet":"Republica del Peru",
    "superficie":"1 285 315 km2",
    "etat":"Republique",
    "langue":"Espagnol. Quechua et Aymara"
  },
  {
    "pays":"PER",
    "date":2005,
    "evolution":-16.37037037,
    "dep":915.3405474,
    "arr_brut":1571000,
    "dep_brut":1438,
    "pop":27.72,
    "nom_complet":"Republica del Peru",
    "superficie":"1 285 315 km2",
    "etat":"Republique",
    "langue":"Espagnol. Quechua et Aymara"
  },
  {
    "pays":"PER",
    "date":2006,
    "evolution":-9.548058561,
    "dep":1031.377106,
    "arr_brut":1721000,
    "dep_brut":1775,
    "pop":28.03,
    "nom_complet":"Republica del Peru",
    "superficie":"1 285 315 km2",
    "etat":"Republique",
    "langue":"Espagnol. Quechua et Aymara"
  },
  {
    "pays":"PER",
    "date":2007,
    "evolution":-11.33062173,
    "dep":1047.494781,
    "arr_brut":1916000,
    "dep_brut":2007,
    "pop":28.33,
    "nom_complet":"Republica del Peru",
    "superficie":"1 285 315 km2",
    "etat":"Republique",
    "langue":"Espagnol. Quechua et Aymara"
  },
  {
    "pays":"PER",
    "date":2008,
    "evolution":-7.411273486,
    "dep":1164.237123,
    "arr_brut":2058000,
    "dep_brut":2396,
    "pop":28.63,
    "nom_complet":"Republica del Peru",
    "superficie":"1 285 315 km2",
    "etat":"Republique",
    "langue":"Espagnol. Quechua et Aymara"
  },
  {
    "pays":"PER",
    "date":2009,
    "evolution":-3.984450923,
    "dep":1140.186916,
    "arr_brut":2140000,
    "dep_brut":2440,
    "pop":28.93,
    "nom_complet":"Republica del Peru",
    "superficie":"1 285 315 km2",
    "etat":"Republique",
    "langue":"Espagnol. Quechua et Aymara"
  },
  {
    "pays":"PER",
    "date":2010,
    "evolution":-7.429906542,
    "dep":1076.555024,
    "arr_brut":2299000,
    "dep_brut":2475,
    "pop":29.26,
    "nom_complet":"Republica del Peru",
    "superficie":"1 285 315 km2",
    "etat":"Republique",
    "langue":"Espagnol. Quechua et Aymara"
  },
  {
    "pays":"PER",
    "date":2011,
    "evolution":-13.00565463,
    "dep":1083.140878,
    "arr_brut":2598000,
    "dep_brut":2814,
    "pop":29.61,
    "nom_complet":"Republica del Peru",
    "superficie":"1 285 315 km2",
    "etat":"Republique",
    "langue":"Espagnol. Quechua et Aymara"
  },
  {
    "pays":"PER",
    "date":2012,
    "evolution":-9.545804465,
    "dep":1080.112439,
    "arr_brut":2846000,
    "dep_brut":3074,
    "pop":29.99,
    "nom_complet":"Republica del Peru",
    "superficie":"1 285 315 km2",
    "etat":"Republique",
    "langue":"Espagnol. Quechua et Aymara"
  },
  {
    "pays":"PER",
    "date":2013,
    "evolution":-11.17357695,
    "dep":1240.518331,
    "arr_brut":3164000,
    "dep_brut":3925,
    "pop":30.38,
    "nom_complet":"Republica del Peru",
    "superficie":"1 285 315 km2",
    "etat":"Republique",
    "langue":"Espagnol. Quechua et Aymara"
  },
  {
    "pays":"ARG",
    "date":1996,
    "evolution":14.19833989,
    "dep":1138.102525,
    "arr_brut":2614000,
    "dep_brut":2975,
    "pop":35.26,
    "nom_complet":"Republica Argentina",
    "superficie":"2 780 400 km2",
    "etat":"Republique federale",
    "langue":"Espagnol"
  },
  {
    "pays":"ARG",
    "date":1997,
    "evolution":5.738332058,
    "dep":1140.738061,
    "arr_brut":2764000,
    "dep_brut":3153,
    "pop":35.69,
    "nom_complet":"Republica Argentina",
    "superficie":"2 780 400 km2",
    "etat":"Republique federale",
    "langue":"Espagnol"
  },
  {
    "pays":"ARG",
    "date":1998,
    "evolution":8.972503618,
    "dep":1113.213811,
    "arr_brut":3012000,
    "dep_brut":3353,
    "pop":36.11,
    "nom_complet":"Republica Argentina",
    "superficie":"2 780 400 km2",
    "etat":"Republique federale",
    "langue":"Espagnol"
  },
  {
    "pays":"ARG",
    "date":1999,
    "evolution":-3.784860558,
    "dep":1095.583161,
    "arr_brut":2898000,
    "dep_brut":3175,
    "pop":36.51,
    "nom_complet":"Republica Argentina",
    "superficie":"2 780 400 km2",
    "etat":"Republique federale",
    "langue":"Espagnol"
  },
  {
    "pays":"ARG",
    "date":2000,
    "evolution":0.379572119,
    "dep":1098.315572,
    "arr_brut":2909000,
    "dep_brut":3195,
    "pop":36.9,
    "nom_complet":"Republica Argentina",
    "superficie":"2 780 400 km2",
    "etat":"Republique federale",
    "langue":"Espagnol"
  },
  {
    "pays":"ARG",
    "date":2001,
    "evolution":-9.934685459,
    "dep":1051.908397,
    "arr_brut":2620000,
    "dep_brut":2756,
    "pop":37.27,
    "nom_complet":"Republica Argentina",
    "superficie":"2 780 400 km2",
    "etat":"Republique federale",
    "langue":"Espagnol"
  },
  {
    "pays":"ARG",
    "date":2002,
    "evolution":7.633587786,
    "dep":608.5106383,
    "arr_brut":2820000,
    "dep_brut":1716,
    "pop":37.63,
    "nom_complet":"Republica Argentina",
    "superficie":"2 780 400 km2",
    "etat":"Republique federale",
    "langue":"Espagnol"
  },
  {
    "pays":"ARG",
    "date":2003,
    "evolution":6.205673759,
    "dep":769.9499165,
    "arr_brut":2995000,
    "dep_brut":2306,
    "pop":37.97,
    "nom_complet":"Republica Argentina",
    "superficie":"2 780 400 km2",
    "etat":"Republique federale",
    "langue":"Espagnol"
  },
  {
    "pays":"ARG",
    "date":2004,
    "evolution":15.42570952,
    "dep":769.4532832,
    "arr_brut":3457000,
    "dep_brut":2660,
    "pop":38.31,
    "nom_complet":"Republica Argentina",
    "superficie":"2 780 400 km2",
    "etat":"Republique federale",
    "langue":"Espagnol"
  },
  {
    "pays":"ARG",
    "date":2005,
    "evolution":10.58721435,
    "dep":839.3931467,
    "arr_brut":3823000,
    "dep_brut":3209,
    "pop":38.65,
    "nom_complet":"Republica Argentina",
    "superficie":"2 780 400 km2",
    "etat":"Republique federale",
    "langue":"Espagnol"
  },
  {
    "pays":"ARG",
    "date":2006,
    "evolution":9.155113785,
    "dep":934.3398035,
    "arr_brut":4173000,
    "dep_brut":3899,
    "pop":38.99,
    "nom_complet":"Republica Argentina",
    "superficie":"2 780 400 km2",
    "etat":"Republique federale",
    "langue":"Espagnol"
  },
  {
    "pays":"ARG",
    "date":2007,
    "evolution":9.321830817,
    "dep":1092.503288,
    "arr_brut":4562000,
    "dep_brut":4984,
    "pop":39.33,
    "nom_complet":"Republica Argentina",
    "superficie":"2 780 400 km2",
    "etat":"Republique federale",
    "langue":"Espagnol"
  },
  {
    "pays":"ARG",
    "date":2008,
    "evolution":3.02498904,
    "dep":1126.595745,
    "arr_brut":4700000,
    "dep_brut":5295,
    "pop":39.68,
    "nom_complet":"Republica Argentina",
    "superficie":"2 780 400 km2",
    "etat":"Republique federale",
    "langue":"Espagnol"
  },
  {
    "pays":"ARG",
    "date":2009,
    "evolution":-8.340425532,
    "dep":1038.997214,
    "arr_brut":4308000,
    "dep_brut":4476,
    "pop":40.02,
    "nom_complet":"Republica Argentina",
    "superficie":"2 780 400 km2",
    "etat":"Republique federale",
    "langue":"Espagnol"
  },
  {
    "pays":"ARG",
    "date":2010,
    "evolution":23.60724234,
    "dep":1057.089202,
    "arr_brut":5325000,
    "dep_brut":5629,
    "pop":40.37,
    "nom_complet":"Republica Argentina",
    "superficie":"2 780 400 km2",
    "etat":"Republique federale",
    "langue":"Espagnol"
  },
  {
    "pays":"ARG",
    "date":2011,
    "evolution":7.136150235,
    "dep":1062.226117,
    "arr_brut":5705000,
    "dep_brut":6060,
    "pop":40.73,
    "nom_complet":"Republica Argentina",
    "superficie":"2 780 400 km2",
    "etat":"Republique federale",
    "langue":"Espagnol"
  },
  {
    "pays":"ARG",
    "date":2012,
    "evolution":-2.068361087,
    "dep":1009.307321,
    "arr_brut":5587000,
    "dep_brut":5639,
    "pop":41.09,
    "nom_complet":"Republica Argentina",
    "superficie":"2 780 400 km2",
    "etat":"Republique federale",
    "langue":"Espagnol"
  },
  {
    "pays":"ARG",
    "date":2013,
    "evolution":-0.286379094,
    "dep":907.1979896,
    "arr_brut":5571000,
    "dep_brut":5054,
    "pop":41.45,
    "nom_complet":"Republica Argentina",
    "superficie":"2 780 400 km2",
    "etat":"Republique federale",
    "langue":"Espagnol"
  },
  {
    "pays":"GUY",
    "date":1996,
    "evolution":-13.2075471698113,
    "dep":1217.391304,
    "arr_brut":92000,
    "dep_brut":112,
    "pop":0.73,
    "nom_complet":"Co-operative Republic of Guyana",
    "superficie":"214 970 km2",
    "etat":"Republique",
    "langue":"Anglais"
  },
  {
    "pays":"GUY",
    "date":1997,
    "evolution":-17.3913043478261,
    "dep":1513.157895,
    "arr_brut":76000,
    "dep_brut":115,
    "pop":0.73,
    "nom_complet":"Co-operative Republic of Guyana",
    "superficie":"214 970 km2",
    "etat":"Republique",
    "langue":"Anglais"
  },
  {
    "pays":"GUY",
    "date":1998,
    "evolution":-13.1578947368421,
    "dep":1681.818182,
    "arr_brut":66000,
    "dep_brut":111,
    "pop":0.74,
    "nom_complet":"Co-operative Republic of Guyana",
    "superficie":"214 970 km2",
    "etat":"Republique",
    "langue":"Anglais"
  },
  {
    "pays":"GUY",
    "date":1999,
    "evolution":13.6363636363636,
    "dep":1453.333333,
    "arr_brut":75000,
    "dep_brut":109,
    "pop":0.74,
    "nom_complet":"Co-operative Republic of Guyana",
    "superficie":"214 970 km2",
    "etat":"Republique",
    "langue":"Anglais"
  },
  {
    "pays":"GUY",
    "date":2000,
    "evolution":40,
    "dep":761.9047619,
    "arr_brut":105000,
    "dep_brut":80,
    "pop":0.74,
    "nom_complet":"Co-operative Republic of Guyana",
    "superficie":"214 970 km2",
    "etat":"Republique",
    "langue":"Anglais"
  },
  {
    "pays":"GUY",
    "date":2001,
    "evolution":-5.71428571428571,
    "dep":656.5656566,
    "arr_brut":99000,
    "dep_brut":65,
    "pop":0.75,
    "nom_complet":"Co-operative Republic of Guyana",
    "superficie":"214 970 km2",
    "etat":"Republique",
    "langue":"Anglais"
  },
  {
    "pays":"GUY",
    "date":2002,
    "evolution":5.05050505050505,
    "dep":509.6153846,
    "arr_brut":104000,
    "dep_brut":53,
    "pop":0.75,
    "nom_complet":"Co-operative Republic of Guyana",
    "superficie":"214 970 km2",
    "etat":"Republique",
    "langue":"Anglais"
  },
  {
    "pays":"GUY",
    "date":2003,
    "evolution":-2.88461538461538,
    "dep":277.2277228,
    "arr_brut":101000,
    "dep_brut":28,
    "pop":0.75,
    "nom_complet":"Co-operative Republic of Guyana",
    "superficie":"214 970 km2",
    "etat":"Republique",
    "langue":"Anglais"
  },
  {
    "pays":"GUY",
    "date":2004,
    "evolution":20.7920792079208,
    "dep":null,
    "arr_brut":122000,
    "dep_brut":null,
    "pop":0.76,
    "nom_complet":"Co-operative Republic of Guyana",
    "superficie":"214 970 km2",
    "etat":"Republique",
    "langue":"Anglais"
  },
  {
    "pays":"GUY",
    "date":2005,
    "evolution":-4.0983606557377,
    "dep":null,
    "arr_brut":117000,
    "dep_brut":null,
    "pop":0.76,
    "nom_complet":"Co-operative Republic of Guyana",
    "superficie":"214 970 km2",
    "etat":"Republique",
    "langue":"Anglais"
  },
  {
    "pays":"GUY",
    "date":2006,
    "evolution":-3.41880341880342,
    "dep":null,
    "arr_brut":113000,
    "dep_brut":null,
    "pop":0.77,
    "nom_complet":"Co-operative Republic of Guyana",
    "superficie":"214 970 km2",
    "etat":"Republique",
    "langue":"Anglais"
  },
  {
    "pays":"GUY",
    "date":2007,
    "evolution":18.5840707964602,
    "dep":null,
    "arr_brut":134000,
    "dep_brut":null,
    "pop":0.77,
    "nom_complet":"Co-operative Republic of Guyana",
    "superficie":"214 970 km2",
    "etat":"Republique",
    "langue":"Anglais"
  },
  {
    "pays":"GUY",
    "date":2008,
    "evolution":-2.98507462686567,
    "dep":null,
    "arr_brut":130000,
    "dep_brut":null,
    "pop":0.78,
    "nom_complet":"Co-operative Republic of Guyana",
    "superficie":"214 970 km2",
    "etat":"Republique",
    "langue":"Anglais"
  },
  {
    "pays":"GUY",
    "date":2009,
    "evolution":8.46153846153846,
    "dep":null,
    "arr_brut":141000,
    "dep_brut":null,
    "pop":0.78,
    "nom_complet":"Co-operative Republic of Guyana",
    "superficie":"214 970 km2",
    "etat":"Republique",
    "langue":"Anglais"
  },
  {
    "pays":"GUY",
    "date":2010,
    "evolution":7.80141843971631,
    "dep":null,
    "arr_brut":152000,
    "dep_brut":null,
    "pop":0.79,
    "nom_complet":"Co-operative Republic of Guyana",
    "superficie":"214 970 km2",
    "etat":"Republique",
    "langue":"Anglais"
  },
  {
    "pays":"GUY",
    "date":2011,
    "evolution":3.28947368421053,
    "dep":null,
    "arr_brut":157000,
    "dep_brut":null,
    "pop":0.79,
    "nom_complet":"Co-operative Republic of Guyana",
    "superficie":"214 970 km2",
    "etat":"Republique",
    "langue":"Anglais"
  },
  {
    "pays":"GUY",
    "date":2012,
    "evolution":12.7388535031847,
    "dep":null,
    "arr_brut":177000,
    "dep_brut":null,
    "pop":0.8,
    "nom_complet":"Co-operative Republic of Guyana",
    "superficie":"214 970 km2",
    "etat":"Republique",
    "langue":"Anglais"
  },
  {
    "pays":"GUY",
    "date":2013,
    "evolution":null,
    "dep":null,
    "arr_brut":null,
    "dep_brut":null,
    "pop":0.8,
    "nom_complet":"Co-operative Republic of Guyana",
    "superficie":"214 970 km2",
    "etat":"Republique",
    "langue":"Anglais"
  },
  {
    "pays":"URY",
    "date":1996,
    "evolution":-6.429277943,
    "dep":413.5687732,
    "arr_brut":2152000,
    "dep_brut":890,
    "pop":3.25,
    "nom_complet":"Republica Oriental del Uruguay",
    "superficie":"176 220 km2",
    "etat":"Republique",
    "langue":"Espagnol"
  },
  {
    "pays":"URY",
    "date":1997,
    "evolution":-7.620817844,
    "dep":372.193437,
    "arr_brut":2316000,
    "dep_brut":862,
    "pop":3.27,
    "nom_complet":"Republica Oriental del Uruguay",
    "superficie":"176 220 km2",
    "etat":"Republique",
    "langue":"Espagnol"
  },
  {
    "pays":"URY",
    "date":1998,
    "evolution":6.606217617,
    "dep":null,
    "arr_brut":2163000,
    "dep_brut":null,
    "pop":3.29,
    "nom_complet":"Republica Oriental del Uruguay",
    "superficie":"176 220 km2",
    "etat":"Republique",
    "langue":"Espagnol"
  },
  {
    "pays":"URY",
    "date":1999,
    "evolution":4.160887656,
    "dep":null,
    "arr_brut":2073000,
    "dep_brut":null,
    "pop":3.31,
    "nom_complet":"Republica Oriental del Uruguay",
    "superficie":"176 220 km2",
    "etat":"Republique",
    "langue":"Espagnol"
  },
  {
    "pays":"URY",
    "date":2000,
    "evolution":5.06512301,
    "dep":420.2235772,
    "arr_brut":1968000,
    "dep_brut":827,
    "pop":3.32,
    "nom_complet":"Republica Oriental del Uruguay",
    "superficie":"176 220 km2",
    "etat":"Republique",
    "langue":"Espagnol"
  },
  {
    "pays":"URY",
    "date":2001,
    "evolution":3.861788618,
    "dep":369.9788584,
    "arr_brut":1892000,
    "dep_brut":700,
    "pop":3.33,
    "nom_complet":"Republica Oriental del Uruguay",
    "superficie":"176 220 km2",
    "etat":"Republique",
    "langue":"Espagnol"
  },
  {
    "pays":"URY",
    "date":2002,
    "evolution":33.50951374,
    "dep":325.1192369,
    "arr_brut":1258000,
    "dep_brut":409,
    "pop":3.33,
    "nom_complet":"Republica Oriental del Uruguay",
    "superficie":"176 220 km2",
    "etat":"Republique",
    "langue":"Espagnol"
  },
  {
    "pays":"URY",
    "date":2003,
    "evolution":-12.87758347,
    "dep":295.0704225,
    "arr_brut":1420000,
    "dep_brut":419,
    "pop":3.33,
    "nom_complet":"Republica Oriental del Uruguay",
    "superficie":"176 220 km2",
    "etat":"Republique",
    "langue":"Espagnol"
  },
  {
    "pays":"URY",
    "date":2004,
    "evolution":-23.66197183,
    "dep":336.5603645,
    "arr_brut":1756000,
    "dep_brut":591,
    "pop":3.32,
    "nom_complet":"Republica Oriental del Uruguay",
    "superficie":"176 220 km2",
    "etat":"Republique",
    "langue":"Espagnol"
  },
  {
    "pays":"URY",
    "date":2005,
    "evolution":-2.961275626,
    "dep":386.6150442,
    "arr_brut":1808000,
    "dep_brut":699,
    "pop":3.33,
    "nom_complet":"Republica Oriental del Uruguay",
    "superficie":"176 220 km2",
    "etat":"Republique",
    "langue":"Espagnol"
  },
  {
    "pays":"URY",
    "date":2006,
    "evolution":3.263274336,
    "dep":406.5180103,
    "arr_brut":1749000,
    "dep_brut":711,
    "pop":3.33,
    "nom_complet":"Republica Oriental del Uruguay",
    "superficie":"176 220 km2",
    "etat":"Republique",
    "langue":"Espagnol"
  },
  {
    "pays":"URY",
    "date":2007,
    "evolution":-0.228702115,
    "dep":529.3782088,
    "arr_brut":1753000,
    "dep_brut":928,
    "pop":3.34,
    "nom_complet":"Republica Oriental del Uruguay",
    "superficie":"176 220 km2",
    "etat":"Republique",
    "langue":"Espagnol"
  },
  {
    "pays":"URY",
    "date":2008,
    "evolution":-10.55333714,
    "dep":616.6150671,
    "arr_brut":1938000,
    "dep_brut":1195,
    "pop":3.35,
    "nom_complet":"Republica Oriental del Uruguay",
    "superficie":"176 220 km2",
    "etat":"Republique",
    "langue":"Espagnol"
  },
  {
    "pays":"URY",
    "date":2009,
    "evolution":-6.037151703,
    "dep":710.4622871,
    "arr_brut":2055000,
    "dep_brut":1460,
    "pop":3.36,
    "nom_complet":"Republica Oriental del Uruguay",
    "superficie":"176 220 km2",
    "etat":"Republique",
    "langue":"Espagnol"
  },
  {
    "pays":"URY",
    "date":2010,
    "evolution":-14.50121655,
    "dep":709.3072673,
    "arr_brut":2353000,
    "dep_brut":1669,
    "pop":3.37,
    "nom_complet":"Republica Oriental del Uruguay",
    "superficie":"176 220 km2",
    "etat":"Republique",
    "langue":"Espagnol"
  },
  {
    "pays":"URY",
    "date":2011,
    "evolution":-21.41946451,
    "dep":840.3920196,
    "arr_brut":2857000,
    "dep_brut":2401,
    "pop":3.38,
    "nom_complet":"Republica Oriental del Uruguay",
    "superficie":"176 220 km2",
    "etat":"Republique",
    "langue":"Espagnol"
  },
  {
    "pays":"URY",
    "date":2012,
    "evolution":5.670283514,
    "dep":823.3766234,
    "arr_brut":2695000,
    "dep_brut":2219,
    "pop":3.4,
    "nom_complet":"Republica Oriental del Uruguay",
    "superficie":"176 220 km2",
    "etat":"Republique",
    "langue":"Espagnol"
  },
  {
    "pays":"URY",
    "date":2013,
    "evolution":0.445269017,
    "dep":749.5341036,
    "arr_brut":2683000,
    "dep_brut":2011,
    "pop":3.41,
    "nom_complet":"Republica Oriental del Uruguay",
    "superficie":"176 220 km2",
    "etat":"Republique",
    "langue":"Espagnol"
  },
  {
    "pays":"BOL",
    "date":1996,
    "evolution":10.2112676056338,
    "dep":319.4888179,
    "arr_brut":313000,
    "dep_brut":100,
    "pop":7.81,
    "nom_complet":"Estado Plurinacional de Bolivia",
    "superficie":"1 098 581 km2",
    "etat":"Republique",
    "langue":"Aymara. Espagnol et Quechua"
  },
  {
    "pays":"BOL",
    "date":1997,
    "evolution":13.4185303514377,
    "dep":363.3802817,
    "arr_brut":355000,
    "dep_brut":129,
    "pop":7.98,
    "nom_complet":"Estado Plurinacional de Bolivia",
    "superficie":"1 098 581 km2",
    "etat":"Republique",
    "langue":"Aymara. Espagnol et Quechua"
  },
  {
    "pays":"BOL",
    "date":1998,
    "evolution":9.01408450704225,
    "dep":354.005168,
    "arr_brut":387000,
    "dep_brut":137,
    "pop":8.15,
    "nom_complet":"Estado Plurinacional de Bolivia",
    "superficie":"1 098 581 km2",
    "etat":"Republique",
    "langue":"Aymara. Espagnol et Quechua"
  },
  {
    "pays":"BOL",
    "date":1999,
    "evolution":-11.6279069767442,
    "dep":362.5730994,
    "arr_brut":342000,
    "dep_brut":124,
    "pop":8.32,
    "nom_complet":"Estado Plurinacional de Bolivia",
    "superficie":"1 098 581 km2",
    "etat":"Republique",
    "langue":"Aymara. Espagnol et Quechua"
  },
  {
    "pays":"BOL",
    "date":2000,
    "evolution":-6.72514619883041,
    "dep":316.6144201,
    "arr_brut":319000,
    "dep_brut":101,
    "pop":8.5,
    "nom_complet":"Estado Plurinacional de Bolivia",
    "superficie":"1 098 581 km2",
    "etat":"Republique",
    "langue":"Aymara. Espagnol et Quechua"
  },
  {
    "pays":"BOL",
    "date":2001,
    "evolution":-0.940438871473354,
    "dep":376.5822785,
    "arr_brut":316000,
    "dep_brut":119,
    "pop":8.67,
    "nom_complet":"Estado Plurinacional de Bolivia",
    "superficie":"1 098 581 km2",
    "etat":"Republique",
    "langue":"Aymara. Espagnol et Quechua"
  },
  {
    "pays":"BOL",
    "date":2002,
    "evolution":5.69620253164557,
    "dep":428.1437126,
    "arr_brut":334000,
    "dep_brut":143,
    "pop":8.84,
    "nom_complet":"Estado Plurinacional de Bolivia",
    "superficie":"1 098 581 km2",
    "etat":"Republique",
    "langue":"Aymara. Espagnol et Quechua"
  },
  {
    "pays":"BOL",
    "date":2003,
    "evolution":27.8443113772455,
    "dep":569.0866511,
    "arr_brut":427000,
    "dep_brut":243,
    "pop":9.02,
    "nom_complet":"Estado Plurinacional de Bolivia",
    "superficie":"1 098 581 km2",
    "etat":"Republique",
    "langue":"Aymara. Espagnol et Quechua"
  },
  {
    "pays":"BOL",
    "date":2004,
    "evolution":12.4121779859485,
    "dep":589.5833333,
    "arr_brut":480000,
    "dep_brut":283,
    "pop":9.19,
    "nom_complet":"Estado Plurinacional de Bolivia",
    "superficie":"1 098 581 km2",
    "etat":"Republique",
    "langue":"Aymara. Espagnol et Quechua"
  },
  {
    "pays":"BOL",
    "date":2005,
    "evolution":9.16666666666667,
    "dep":658.3969466,
    "arr_brut":524000,
    "dep_brut":345,
    "pop":9.35,
    "nom_complet":"Estado Plurinacional de Bolivia",
    "superficie":"1 098 581 km2",
    "etat":"Republique",
    "langue":"Aymara. Espagnol et Quechua"
  },
  {
    "pays":"BOL",
    "date":2006,
    "evolution":-0.572519083969466,
    "dep":633.3973129,
    "arr_brut":521000,
    "dep_brut":330,
    "pop":9.52,
    "nom_complet":"Estado Plurinacional de Bolivia",
    "superficie":"1 098 581 km2",
    "etat":"Republique",
    "langue":"Aymara. Espagnol et Quechua"
  },
  {
    "pays":"BOL",
    "date":2007,
    "evolution":9.98080614203455,
    "dep":568.9354276,
    "arr_brut":573000,
    "dep_brut":326,
    "pop":9.68,
    "nom_complet":"Estado Plurinacional de Bolivia",
    "superficie":"1 098 581 km2",
    "etat":"Republique",
    "langue":"Aymara. Espagnol et Quechua"
  },
  {
    "pays":"BOL",
    "date":2008,
    "evolution":3.66492146596859,
    "dep":508.4175084,
    "arr_brut":594000,
    "dep_brut":302,
    "pop":9.83,
    "nom_complet":"Estado Plurinacional de Bolivia",
    "superficie":"1 098 581 km2",
    "etat":"Republique",
    "langue":"Aymara. Espagnol et Quechua"
  },
  {
    "pays":"BOL",
    "date":2009,
    "evolution":0.841750841750842,
    "dep":706.1769616,
    "arr_brut":599000,
    "dep_brut":423,
    "pop":9.99,
    "nom_complet":"Estado Plurinacional de Bolivia",
    "superficie":"1 098 581 km2",
    "etat":"Republique",
    "langue":"Aymara. Espagnol et Quechua"
  },
  {
    "pays":"BOL",
    "date":2010,
    "evolution":13.355592654424,
    "dep":805.5964654,
    "arr_brut":679000,
    "dep_brut":547,
    "pop":10.16,
    "nom_complet":"Estado Plurinacional de Bolivia",
    "superficie":"1 098 581 km2",
    "etat":"Republique",
    "langue":"Aymara. Espagnol et Quechua"
  },
  {
    "pays":"BOL",
    "date":2011,
    "evolution":4.71281296023564,
    "dep":828.4106892,
    "arr_brut":711000,
    "dep_brut":589,
    "pop":10.32,
    "nom_complet":"Estado Plurinacional de Bolivia",
    "superficie":"1 098 581 km2",
    "etat":"Republique",
    "langue":"Aymara. Espagnol et Quechua"
  },
  {
    "pays":"BOL",
    "date":2012,
    "evolution":12.2362869198312,
    "dep":706.7669173,
    "arr_brut":798000,
    "dep_brut":564,
    "pop":10.5,
    "nom_complet":"Estado Plurinacional de Bolivia",
    "superficie":"1 098 581 km2",
    "etat":"Republique",
    "langue":"Aymara. Espagnol et Quechua"
  },
  {
    "pays":"BOL",
    "date":2013,
    "evolution":0,
    "dep":775.6892231,
    "arr_brut":798000,
    "dep_brut":619,
    "pop":10.67,
    "nom_complet":"Estado Plurinacional de Bolivia",
    "superficie":"1 098 581 km2",
    "etat":"Republique",
    "langue":"Aymara. Espagnol et Quechua"
  },
  {
    "pays":"BRA",
    "date":1996,
    "evolution":33.9025615268709,
    "dep":279.0697674,
    "arr_brut":2666000,
    "dep_brut":744,
    "pop":164.39,
    "nom_complet":"Republica Federativa do Brasil",
    "superficie":"8 514 876 km2",
    "etat":"Republique federale",
    "langue":"Portugais"
  },
  {
    "pays":"BRA",
    "date":1997,
    "evolution":6.90172543135784,
    "dep":359.6491228,
    "arr_brut":2850000,
    "dep_brut":1025,
    "pop":166.93,
    "nom_complet":"Republica Federativa do Brasil",
    "superficie":"8 514 876 km2",
    "etat":"Republique federale",
    "langue":"Portugais"
  },
  {
    "pays":"BRA",
    "date":1998,
    "evolution":69.0526315789474,
    "dep":290.1618929,
    "arr_brut":4818000,
    "dep_brut":1398,
    "pop":169.47,
    "nom_complet":"Republica Federativa do Brasil",
    "superficie":"8 514 876 km2",
    "etat":"Republique federale",
    "langue":"Portugais"
  },
  {
    "pays":"BRA",
    "date":1999,
    "evolution":5.9983395599834,
    "dep":336.4010182,
    "arr_brut":5107000,
    "dep_brut":1718,
    "pop":172.01,
    "nom_complet":"Republica Federativa do Brasil",
    "superficie":"8 514 876 km2",
    "etat":"Republique federale",
    "langue":"Portugais"
  },
  {
    "pays":"BRA",
    "date":2000,
    "evolution":4.03367926375563,
    "dep":370.6004141,
    "arr_brut":5313000,
    "dep_brut":1969,
    "pop":174.5,
    "nom_complet":"Republica Federativa do Brasil",
    "superficie":"8 514 876 km2",
    "etat":"Republique federale",
    "langue":"Portugais"
  },
  {
    "pays":"BRA",
    "date":2001,
    "evolution":-10.1637492941841,
    "dep":386.3398282,
    "arr_brut":4773000,
    "dep_brut":1844,
    "pop":176.97,
    "nom_complet":"Republica Federativa do Brasil",
    "superficie":"8 514 876 km2",
    "etat":"Republique federale",
    "langue":"Portugais"
  },
  {
    "pays":"BRA",
    "date":2002,
    "evolution":-20.6997695369788,
    "dep":565.9180978,
    "arr_brut":3785000,
    "dep_brut":2142,
    "pop":179.39,
    "nom_complet":"Republica Federativa do Brasil",
    "superficie":"8 514 876 km2",
    "etat":"Republique federale",
    "langue":"Portugais"
  },
  {
    "pays":"BRA",
    "date":2003,
    "evolution":9.19418758256275,
    "dep":646.7457053,
    "arr_brut":4133000,
    "dep_brut":2673,
    "pop":181.75,
    "nom_complet":"Republica Federativa do Brasil",
    "superficie":"8 514 876 km2",
    "etat":"Republique federale",
    "langue":"Portugais"
  },
  {
    "pays":"BRA",
    "date":2004,
    "evolution":15.9932252601016,
    "dep":706.9253233,
    "arr_brut":4794000,
    "dep_brut":3389,
    "pop":184.01,
    "nom_complet":"Republica Federativa do Brasil",
    "superficie":"8 514 876 km2",
    "etat":"Republique federale",
    "langue":"Portugais"
  },
  {
    "pays":"BRA",
    "date":2005,
    "evolution":11.7647058823529,
    "dep":777.9022023,
    "arr_brut":5358000,
    "dep_brut":4168,
    "pop":186.14,
    "nom_complet":"Republica Federativa do Brasil",
    "superficie":"8 514 876 km2",
    "etat":"Republique federale",
    "langue":"Portugais"
  },
  {
    "pays":"BRA",
    "date":2006,
    "evolution":-6.36431504292646,
    "dep":912.2981862,
    "arr_brut":5017000,
    "dep_brut":4577,
    "pop":188.13,
    "nom_complet":"Republica Federativa do Brasil",
    "superficie":"8 514 876 km2",
    "etat":"Republique federale",
    "langue":"Portugais"
  },
  {
    "pays":"BRA",
    "date":2007,
    "evolution":0.179390073749253,
    "dep":1051.333068,
    "arr_brut":5026000,
    "dep_brut":5284,
    "pop":190,
    "nom_complet":"Republica Federativa do Brasil",
    "superficie":"8 514 876 km2",
    "etat":"Republique federale",
    "langue":"Portugais"
  },
  {
    "pays":"BRA",
    "date":2008,
    "evolution":0.477516912057302,
    "dep":1209.70297,
    "arr_brut":5050000,
    "dep_brut":6109,
    "pop":191.77,
    "nom_complet":"Republica Federativa do Brasil",
    "superficie":"8 514 876 km2",
    "etat":"Republique federale",
    "langue":"Portugais"
  },
  {
    "pays":"BRA",
    "date":2009,
    "evolution":-4.91089108910891,
    "dep":1173.469388,
    "arr_brut":4802000,
    "dep_brut":5635,
    "pop":193.49,
    "nom_complet":"Republica Federativa do Brasil",
    "superficie":"8 514 876 km2",
    "etat":"Republique federale",
    "langue":"Portugais"
  },
  {
    "pays":"BRA",
    "date":2010,
    "evolution":7.47605164514786,
    "dep":1155.396241,
    "arr_brut":5161000,
    "dep_brut":5963,
    "pop":195.21,
    "nom_complet":"Republica Federativa do Brasil",
    "superficie":"8 514 876 km2",
    "etat":"Republique federale",
    "langue":"Portugais"
  },
  {
    "pays":"BRA",
    "date":2011,
    "evolution":5.27029645417555,
    "dep":1257.132339,
    "arr_brut":5433000,
    "dep_brut":6830,
    "pop":196.94,
    "nom_complet":"Republica Federativa do Brasil",
    "superficie":"8 514 876 km2",
    "etat":"Republique federale",
    "langue":"Portugais"
  },
  {
    "pays":"BRA",
    "date":2012,
    "evolution":4.49107307196761,
    "dep":1213.669191,
    "arr_brut":5677000,
    "dep_brut":6890,
    "pop":198.66,
    "nom_complet":"Republica Federativa do Brasil",
    "superficie":"8 514 876 km2",
    "etat":"Republique federale",
    "langue":"Portugais"
  },
  {
    "pays":"BRA",
    "date":2013,
    "evolution":2.39563149550819,
    "dep":1207.810081,
    "arr_brut":5813000,
    "dep_brut":7021,
    "pop":200.36,
    "nom_complet":"Republica Federativa do Brasil",
    "superficie":"8 514 876 km2",
    "etat":"Republique federale",
    "langue":"Portugais"
  },
  {
    "pays":"CHL",
    "date":1996,
    "evolution":-5.84415584415584,
    "dep":833.7931034,
    "arr_brut":1450000,
    "dep_brut":1209,
    "pop":14.66,
    "nom_complet":"Republica de Chile",
    "superficie":"756 950 km2",
    "etat":"Republique",
    "langue":"Espagnol"
  },
  {
    "pays":"CHL",
    "date":1997,
    "evolution":13.3793103448276,
    "dep":852.189781,
    "arr_brut":1644000,
    "dep_brut":1401,
    "pop":14.87,
    "nom_complet":"Republica de Chile",
    "superficie":"756 950 km2",
    "etat":"Republique",
    "langue":"Espagnol"
  },
  {
    "pays":"CHL",
    "date":1998,
    "evolution":6.99513381995134,
    "dep":813.530415,
    "arr_brut":1759000,
    "dep_brut":1431,
    "pop":15.07,
    "nom_complet":"Republica de Chile",
    "superficie":"756 950 km2",
    "etat":"Republique",
    "langue":"Espagnol"
  },
  {
    "pays":"CHL",
    "date":1999,
    "evolution":-7.22001137009665,
    "dep":761.6421569,
    "arr_brut":1632000,
    "dep_brut":1243,
    "pop":15.27,
    "nom_complet":"Republica de Chile",
    "superficie":"756 950 km2",
    "etat":"Republique",
    "langue":"Espagnol"
  },
  {
    "pays":"CHL",
    "date":2000,
    "evolution":6.74019607843137,
    "dep":676.8082664,
    "arr_brut":1742000,
    "dep_brut":1179,
    "pop":15.45,
    "nom_complet":"Republica de Chile",
    "superficie":"756 950 km2",
    "etat":"Republique",
    "langue":"Espagnol"
  },
  {
    "pays":"CHL",
    "date":2001,
    "evolution":-1.09070034443169,
    "dep":687.1735345,
    "arr_brut":1723000,
    "dep_brut":1184,
    "pop":15.64,
    "nom_complet":"Republica de Chile",
    "superficie":"756 950 km2",
    "etat":"Republique",
    "langue":"Espagnol"
  },
  {
    "pays":"CHL",
    "date":2002,
    "evolution":-18.0499129425421,
    "dep":864.7308782,
    "arr_brut":1412000,
    "dep_brut":1221,
    "pop":15.82,
    "nom_complet":"Republica de Chile",
    "superficie":"756 950 km2",
    "etat":"Republique",
    "langue":"Espagnol"
  },
  {
    "pays":"CHL",
    "date":2003,
    "evolution":14.3059490084986,
    "dep":811.0285006,
    "arr_brut":1614000,
    "dep_brut":1309,
    "pop":16,
    "nom_complet":"Republica de Chile",
    "superficie":"756 950 km2",
    "etat":"Republique",
    "langue":"Espagnol"
  },
  {
    "pays":"CHL",
    "date":2004,
    "evolution":10.5947955390335,
    "dep":880.1120448,
    "arr_brut":1785000,
    "dep_brut":1571,
    "pop":16.17,
    "nom_complet":"Republica de Chile",
    "superficie":"756 950 km2",
    "etat":"Republique",
    "langue":"Espagnol"
  },
  {
    "pays":"CHL",
    "date":2005,
    "evolution":13.5574229691877,
    "dep":829.7977306,
    "arr_brut":2027000,
    "dep_brut":1682,
    "pop":16.34,
    "nom_complet":"Republica de Chile",
    "superficie":"756 950 km2",
    "etat":"Republique",
    "langue":"Espagnol"
  },
  {
    "pays":"CHL",
    "date":2006,
    "evolution":11.1494819930932,
    "dep":839.325344,
    "arr_brut":2253000,
    "dep_brut":1891,
    "pop":16.5,
    "nom_complet":"Republica de Chile",
    "superficie":"756 950 km2",
    "etat":"Republique",
    "langue":"Espagnol"
  },
  {
    "pays":"CHL",
    "date":2007,
    "evolution":11.2738570794496,
    "dep":887.9138412,
    "arr_brut":2507000,
    "dep_brut":2226,
    "pop":16.67,
    "nom_complet":"Republica de Chile",
    "superficie":"756 950 km2",
    "etat":"Republique",
    "langue":"Espagnol"
  },
  {
    "pays":"CHL",
    "date":2008,
    "evolution":8.09732748304747,
    "dep":936.1623616,
    "arr_brut":2710000,
    "dep_brut":2537,
    "pop":16.83,
    "nom_complet":"Republica de Chile",
    "superficie":"756 950 km2",
    "etat":"Republique",
    "langue":"Espagnol"
  },
  {
    "pays":"CHL",
    "date":2009,
    "evolution":1.8450184501845,
    "dep":851.4492754,
    "arr_brut":2760000,
    "dep_brut":2350,
    "pop":16.99,
    "nom_complet":"Republica de Chile",
    "superficie":"756 950 km2",
    "etat":"Republique",
    "langue":"Espagnol"
  },
  {
    "pays":"CHL",
    "date":2010,
    "evolution":1.48550724637681,
    "dep":864.6911817,
    "arr_brut":2801000,
    "dep_brut":2422,
    "pop":17.15,
    "nom_complet":"Republica de Chile",
    "superficie":"756 950 km2",
    "etat":"Republique",
    "langue":"Espagnol"
  },
  {
    "pays":"CHL",
    "date":2011,
    "evolution":11.9957158157801,
    "dep":876.9525024,
    "arr_brut":3137000,
    "dep_brut":2751,
    "pop":17.31,
    "nom_complet":"Republica de Chile",
    "superficie":"756 950 km2",
    "etat":"Republique",
    "langue":"Espagnol"
  },
  {
    "pays":"CHL",
    "date":2012,
    "evolution":13.292955052598,
    "dep":876.1958357,
    "arr_brut":3554000,
    "dep_brut":3114,
    "pop":17.46,
    "nom_complet":"Republica de Chile",
    "superficie":"756 950 km2",
    "etat":"Republique",
    "langue":"Espagnol"
  },
  {
    "pays":"CHL",
    "date":2013,
    "evolution":0.619020821609454,
    "dep":889.8210291,
    "arr_brut":3576000,
    "dep_brut":3182,
    "pop":17.62,
    "nom_complet":"Republica de Chile",
    "superficie":"756 950 km2",
    "etat":"Republique",
    "langue":"Espagnol"
  },
  {
    "pays":"COL",
    "date":1996,
    "evolution":-54.8963545389564,
    "dep":2158.478605,
    "arr_brut":631000,
    "dep_brut":1362,
    "pop":37.24,
    "nom_complet":"Republica de Colombia",
    "superficie":"1 141 748 km2",
    "etat":"Republique",
    "langue":"Espagnol"
  },
  {
    "pays":"COL",
    "date":1997,
    "evolution":1.26782884310618,
    "dep":2057.902973,
    "arr_brut":639000,
    "dep_brut":1315,
    "pop":37.9,
    "nom_complet":"Republica de Colombia",
    "superficie":"1 141 748 km2",
    "etat":"Republique",
    "langue":"Espagnol"
  },
  {
    "pays":"COL",
    "date":1998,
    "evolution":5.4773082942097,
    "dep":1804.154303,
    "arr_brut":674000,
    "dep_brut":1216,
    "pop":38.57,
    "nom_complet":"Republica de Colombia",
    "superficie":"1 141 748 km2",
    "etat":"Republique",
    "langue":"Espagnol"
  },
  {
    "pays":"COL",
    "date":1999,
    "evolution":-18.9910979228487,
    "dep":2254.578755,
    "arr_brut":546000,
    "dep_brut":1231,
    "pop":39.23,
    "nom_complet":"Republica de Colombia",
    "superficie":"1 141 748 km2",
    "etat":"Republique",
    "langue":"Espagnol"
  },
  {
    "pays":"COL",
    "date":2000,
    "evolution":2.01465201465201,
    "dep":2357.271095,
    "arr_brut":557000,
    "dep_brut":1313,
    "pop":39.9,
    "nom_complet":"Republica de Colombia",
    "superficie":"1 141 748 km2",
    "etat":"Republique",
    "langue":"Espagnol"
  },
  {
    "pays":"COL",
    "date":2001,
    "evolution":10.5924596050269,
    "dep":2407.467532,
    "arr_brut":616000,
    "dep_brut":1483,
    "pop":40.56,
    "nom_complet":"Republica de Colombia",
    "superficie":"1 141 748 km2",
    "etat":"Republique",
    "langue":"Espagnol"
  },
  {
    "pays":"COL",
    "date":2002,
    "evolution":-7.95454545454545,
    "dep":2181.657848,
    "arr_brut":567000,
    "dep_brut":1237,
    "pop":41.22,
    "nom_complet":"Republica de Colombia",
    "superficie":"1 141 748 km2",
    "etat":"Republique",
    "langue":"Espagnol"
  },
  {
    "pays":"COL",
    "date":2003,
    "evolution":10.2292768959436,
    "dep":1905.6,
    "arr_brut":625000,
    "dep_brut":1191,
    "pop":41.87,
    "nom_complet":"Republica de Colombia",
    "superficie":"1 141 748 km2",
    "etat":"Republique",
    "langue":"Espagnol"
  },
  {
    "pays":"COL",
    "date":2004,
    "evolution":26.56,
    "dep":1730.720607,
    "arr_brut":791000,
    "dep_brut":1369,
    "pop":42.53,
    "nom_complet":"Republica de Colombia",
    "superficie":"1 141 748 km2",
    "etat":"Republique",
    "langue":"Espagnol"
  },
  {
    "pays":"COL",
    "date":2005,
    "evolution":17.9519595448799,
    "dep":1687.031083,
    "arr_brut":933000,
    "dep_brut":1574,
    "pop":43.18,
    "nom_complet":"Republica de Colombia",
    "superficie":"1 141 748 km2",
    "etat":"Republique",
    "langue":"Espagnol"
  },
  {
    "pays":"COL",
    "date":2006,
    "evolution":119.185423365488,
    "dep":982.396088,
    "arr_brut":2045000,
    "dep_brut":2009,
    "pop":43.84,
    "nom_complet":"Republica de Colombia",
    "superficie":"1 141 748 km2",
    "etat":"Republique",
    "langue":"Espagnol"
  },
  {
    "pays":"COL",
    "date":2007,
    "evolution":10.2200488997555,
    "dep":1003.549246,
    "arr_brut":2254000,
    "dep_brut":2262,
    "pop":44.5,
    "nom_complet":"Republica de Colombia",
    "superficie":"1 141 748 km2",
    "etat":"Republique",
    "langue":"Espagnol"
  },
  {
    "pays":"COL",
    "date":2008,
    "evolution":2.79503105590062,
    "dep":1052.222702,
    "arr_brut":2317000,
    "dep_brut":2438,
    "pop":45.15,
    "nom_complet":"Republica de Colombia",
    "superficie":"1 141 748 km2",
    "etat":"Republique",
    "langue":"Espagnol"
  },
  {
    "pays":"COL",
    "date":2009,
    "evolution":2.02848511005611,
    "dep":1103.637902,
    "arr_brut":2364000,
    "dep_brut":2609,
    "pop":45.8,
    "nom_complet":"Republica de Colombia",
    "superficie":"1 141 748 km2",
    "etat":"Republique",
    "langue":"Espagnol"
  },
  {
    "pays":"COL",
    "date":2010,
    "evolution":-40.5668358714044,
    "dep":1940.925267,
    "arr_brut":1405000,
    "dep_brut":2727,
    "pop":46.44,
    "nom_complet":"Republica de Colombia",
    "superficie":"1 141 748 km2",
    "etat":"Republique",
    "langue":"Espagnol"
  },
  {
    "pays":"COL",
    "date":2011,
    "evolution":45.3380782918149,
    "dep":1465.230167,
    "arr_brut":2042000,
    "dep_brut":2992,
    "pop":47.08,
    "nom_complet":"Republica de Colombia",
    "superficie":"1 141 748 km2",
    "etat":"Republique",
    "langue":"Espagnol"
  },
  {
    "pays":"COL",
    "date":2012,
    "evolution":6.51322233104799,
    "dep":1497.471264,
    "arr_brut":2175000,
    "dep_brut":3257,
    "pop":47.7,
    "nom_complet":"Republica de Colombia",
    "superficie":"1 141 748 km2",
    "etat":"Republique",
    "langue":"Espagnol"
  },
  {
    "pays":"COL",
    "date":2013,
    "evolution":5.19540229885057,
    "dep":1590.472028,
    "arr_brut":2288000,
    "dep_brut":3639,
    "pop":48.32,
    "nom_complet":"Republica de Colombia",
    "superficie":"1 141 748 km2",
    "etat":"Republique",
    "langue":"Espagnol"
  },
  {
    "pays":"ECU",
    "date":1996,
    "evolution":12.2727272727273,
    "dep":668.0161943,
    "arr_brut":494000,
    "dep_brut":330,
    "pop":11.56,
    "nom_complet":"Republica del Ecuador",
    "superficie":"283 520 km2",
    "etat":"Republique",
    "langue":"Espagnol. Quechua et Shuara"
  },
  {
    "pays":"ECU",
    "date":1997,
    "evolution":7.08502024291498,
    "dep":633.2703214,
    "arr_brut":529000,
    "dep_brut":335,
    "pop":11.8,
    "nom_complet":"Republica del Ecuador",
    "superficie":"283 520 km2",
    "etat":"Republique",
    "langue":"Espagnol. Quechua et Shuara"
  },
  {
    "pays":"ECU",
    "date":1998,
    "evolution":-3.40264650283554,
    "dep":645.7925636,
    "arr_brut":511000,
    "dep_brut":330,
    "pop":12.04,
    "nom_complet":"Republica del Ecuador",
    "superficie":"283 520 km2",
    "etat":"Republique",
    "langue":"Espagnol. Quechua et Shuara"
  },
  {
    "pays":"ECU",
    "date":1999,
    "evolution":1.36986301369863,
    "dep":727.7992278,
    "arr_brut":518000,
    "dep_brut":377,
    "pop":12.29,
    "nom_complet":"Republica del Ecuador",
    "superficie":"283 520 km2",
    "etat":"Republique",
    "langue":"Espagnol. Quechua et Shuara"
  },
  {
    "pays":"ECU",
    "date":2000,
    "evolution":21.042471042471,
    "dep":719.2982456,
    "arr_brut":627000,
    "dep_brut":451,
    "pop":12.53,
    "nom_complet":"Republica del Ecuador",
    "superficie":"283 520 km2",
    "etat":"Republique",
    "langue":"Espagnol. Quechua et Shuara"
  },
  {
    "pays":"ECU",
    "date":2001,
    "evolution":2.23285486443381,
    "dep":683.3073323,
    "arr_brut":641000,
    "dep_brut":438,
    "pop":12.78,
    "nom_complet":"Republica del Ecuador",
    "superficie":"283 520 km2",
    "etat":"Republique",
    "langue":"Espagnol. Quechua et Shuara"
  },
  {
    "pays":"ECU",
    "date":2002,
    "evolution":6.55226209048362,
    "dep":657.3938507,
    "arr_brut":683000,
    "dep_brut":449,
    "pop":13.03,
    "nom_complet":"Republica del Ecuador",
    "superficie":"283 520 km2",
    "etat":"Republique",
    "langue":"Espagnol. Quechua et Shuara"
  },
  {
    "pays":"ECU",
    "date":2003,
    "evolution":11.4202049780381,
    "dep":536.1366623,
    "arr_brut":761000,
    "dep_brut":408,
    "pop":13.28,
    "nom_complet":"Republica del Ecuador",
    "superficie":"283 520 km2",
    "etat":"Republique",
    "langue":"Espagnol. Quechua et Shuara"
  },
  {
    "pays":"ECU",
    "date":2004,
    "evolution":7.6215505913272,
    "dep":566.5445665,
    "arr_brut":819000,
    "dep_brut":464,
    "pop":13.53,
    "nom_complet":"Republica del Ecuador",
    "superficie":"283 520 km2",
    "etat":"Republique",
    "langue":"Espagnol. Quechua et Shuara"
  },
  {
    "pays":"ECU",
    "date":2005,
    "evolution":5.00610500610501,
    "dep":567.4418605,
    "arr_brut":860000,
    "dep_brut":488,
    "pop":13.78,
    "nom_complet":"Republica del Ecuador",
    "superficie":"283 520 km2",
    "etat":"Republique",
    "langue":"Espagnol. Quechua et Shuara"
  },
  {
    "pays":"ECU",
    "date":2006,
    "evolution":-2.2093023255814,
    "dep":585.0178359,
    "arr_brut":841000,
    "dep_brut":492,
    "pop":14.02,
    "nom_complet":"Republica del Ecuador",
    "superficie":"283 520 km2",
    "etat":"Republique",
    "langue":"Espagnol. Quechua et Shuara"
  },
  {
    "pays":"ECU",
    "date":2007,
    "evolution":11.4149821640904,
    "dep":668.0896478,
    "arr_brut":937000,
    "dep_brut":626,
    "pop":14.27,
    "nom_complet":"Republica del Ecuador",
    "superficie":"283 520 km2",
    "etat":"Republique",
    "langue":"Espagnol. Quechua et Shuara"
  },
  {
    "pays":"ECU",
    "date":2008,
    "evolution":7.25720384204909,
    "dep":741.2935323,
    "arr_brut":1005000,
    "dep_brut":745,
    "pop":14.51,
    "nom_complet":"Republica del Ecuador",
    "superficie":"283 520 km2",
    "etat":"Republique",
    "langue":"Espagnol. Quechua et Shuara"
  },
  {
    "pays":"ECU",
    "date":2009,
    "evolution":-3.681592039801,
    "dep":696.2809917,
    "arr_brut":968000,
    "dep_brut":674,
    "pop":14.76,
    "nom_complet":"Republica del Ecuador",
    "superficie":"283 520 km2",
    "etat":"Republique",
    "langue":"Espagnol. Quechua et Shuara"
  },
  {
    "pays":"ECU",
    "date":2010,
    "evolution":8.16115702479339,
    "dep":750.7163324,
    "arr_brut":1047000,
    "dep_brut":786,
    "pop":15,
    "nom_complet":"Republica del Ecuador",
    "superficie":"283 520 km2",
    "etat":"Republique",
    "langue":"Espagnol. Quechua et Shuara"
  },
  {
    "pays":"ECU",
    "date":2011,
    "evolution":8.97803247373448,
    "dep":744.0841367,
    "arr_brut":1141000,
    "dep_brut":849,
    "pop":15.25,
    "nom_complet":"Republica del Ecuador",
    "superficie":"283 520 km2",
    "etat":"Republique",
    "langue":"Espagnol. Quechua et Shuara"
  },
  {
    "pays":"ECU",
    "date":2012,
    "evolution":11.4811568799299,
    "dep":816.8238994,
    "arr_brut":1272000,
    "dep_brut":1039,
    "pop":15.49,
    "nom_complet":"Republica del Ecuador",
    "superficie":"283 520 km2",
    "etat":"Republique",
    "langue":"Espagnol. Quechua et Shuara"
  },
  {
    "pays":"ECU",
    "date":2013,
    "evolution":7.23270440251572,
    "dep":917.1554252,
    "arr_brut":1364000,
    "dep_brut":1251,
    "pop":15.74,
    "nom_complet":"Republica del Ecuador",
    "superficie":"283 520 km2",
    "etat":"Republique",
    "langue":"Espagnol. Quechua et Shuara"
  },
  {
    "pays":"SUR",
    "date":1996,
    "evolution":23.2558139534884,
    "dep":830.1886792,
    "arr_brut":53000,
    "dep_brut":44,
    "pop":0.44,
    "nom_complet":"Republiek Suriname",
    "superficie":"163 270 km2",
    "etat":"Republique",
    "langue":"Neerlandais"
  },
  {
    "pays":"SUR",
    "date":1997,
    "evolution":15.0943396226415,
    "dep":622.9508197,
    "arr_brut":61000,
    "dep_brut":38,
    "pop":0.45,
    "nom_complet":"Republiek Suriname",
    "superficie":"163 270 km2",
    "etat":"Republique",
    "langue":"Neerlandais"
  },
  {
    "pays":"SUR",
    "date":1998,
    "evolution":-9.83606557377049,
    "dep":654.5454545,
    "arr_brut":55000,
    "dep_brut":36,
    "pop":0.45,
    "nom_complet":"Republiek Suriname",
    "superficie":"163 270 km2",
    "etat":"Republique",
    "langue":"Neerlandais"
  },
  {
    "pays":"SUR",
    "date":1999,
    "evolution":3.63636363636364,
    "dep":789.4736842,
    "arr_brut":57000,
    "dep_brut":45,
    "pop":0.46,
    "nom_complet":"Republiek Suriname",
    "superficie":"163 270 km2",
    "etat":"Republique",
    "langue":"Neerlandais"
  },
  {
    "pays":"SUR",
    "date":2000,
    "evolution":0,
    "dep":736.8421053,
    "arr_brut":57000,
    "dep_brut":42,
    "pop":0.47,
    "nom_complet":"Republiek Suriname",
    "superficie":"163 270 km2",
    "etat":"Republique",
    "langue":"Neerlandais"
  },
  {
    "pays":"SUR",
    "date":2001,
    "evolution":-5.26315789473684,
    "dep":481.4814815,
    "arr_brut":54000,
    "dep_brut":26,
    "pop":0.47,
    "nom_complet":"Republiek Suriname",
    "superficie":"163 270 km2",
    "etat":"Republique",
    "langue":"Neerlandais"
  },
  {
    "pays":"SUR",
    "date":2002,
    "evolution":11.1111111111111,
    "dep":283.3333333,
    "arr_brut":60000,
    "dep_brut":17,
    "pop":0.48,
    "nom_complet":"Republiek Suriname",
    "superficie":"163 270 km2",
    "etat":"Republique",
    "langue":"Neerlandais"
  },
  {
    "pays":"SUR",
    "date":2003,
    "evolution":36.6666666666667,
    "dep":219.5121951,
    "arr_brut":82000,
    "dep_brut":18,
    "pop":0.49,
    "nom_complet":"Republiek Suriname",
    "superficie":"163 270 km2",
    "etat":"Republique",
    "langue":"Neerlandais"
  },
  {
    "pays":"SUR",
    "date":2004,
    "evolution":68.2926829268293,
    "dep":376.8115942,
    "arr_brut":138000,
    "dep_brut":52,
    "pop":0.49,
    "nom_complet":"Republiek Suriname",
    "superficie":"163 270 km2",
    "etat":"Republique",
    "langue":"Neerlandais"
  },
  {
    "pays":"SUR",
    "date":2005,
    "evolution":16.6666666666667,
    "dep":596.2732919,
    "arr_brut":161000,
    "dep_brut":96,
    "pop":0.5,
    "nom_complet":"Republiek Suriname",
    "superficie":"163 270 km2",
    "etat":"Republique",
    "langue":"Neerlandais"
  },
  {
    "pays":"SUR",
    "date":2006,
    "evolution":-4.34782608695652,
    "dep":707.7922078,
    "arr_brut":154000,
    "dep_brut":109,
    "pop":0.51,
    "nom_complet":"Republiek Suriname",
    "superficie":"163 270 km2",
    "etat":"Republique",
    "langue":"Neerlandais"
  },
  {
    "pays":"SUR",
    "date":2007,
    "evolution":8.44155844155844,
    "dep":437.1257485,
    "arr_brut":167000,
    "dep_brut":73,
    "pop":0.51,
    "nom_complet":"Republiek Suriname",
    "superficie":"163 270 km2",
    "etat":"Republique",
    "langue":"Neerlandais"
  },
  {
    "pays":"SUR",
    "date":2008,
    "evolution":-9.58083832335329,
    "dep":549.6688742,
    "arr_brut":151000,
    "dep_brut":83,
    "pop":0.52,
    "nom_complet":"Republiek Suriname",
    "superficie":"163 270 km2",
    "etat":"Republique",
    "langue":"Neerlandais"
  },
  {
    "pays":"SUR",
    "date":2009,
    "evolution":0,
    "dep":463.5761589,
    "arr_brut":151000,
    "dep_brut":70,
    "pop":0.52,
    "nom_complet":"Republiek Suriname",
    "superficie":"163 270 km2",
    "etat":"Republique",
    "langue":"Neerlandais"
  },
  {
    "pays":"SUR",
    "date":2010,
    "evolution":35.7615894039735,
    "dep":336.5853659,
    "arr_brut":205000,
    "dep_brut":69,
    "pop":0.52,
    "nom_complet":"Republiek Suriname",
    "superficie":"163 270 km2",
    "etat":"Republique",
    "langue":"Neerlandais"
  },
  {
    "pays":"SUR",
    "date":2011,
    "evolution":7.31707317073171,
    "dep":313.6363636,
    "arr_brut":220000,
    "dep_brut":69,
    "pop":0.53,
    "nom_complet":"Republiek Suriname",
    "superficie":"163 270 km2",
    "etat":"Republique",
    "langue":"Neerlandais"
  },
  {
    "pays":"SUR",
    "date":2012,
    "evolution":9.09090909090909,
    "dep":329.1666667,
    "arr_brut":240000,
    "dep_brut":79,
    "pop":0.53,
    "nom_complet":"Republiek Suriname",
    "superficie":"163 270 km2",
    "etat":"Republique",
    "langue":"Neerlandais"
  },
  {
    "pays":"SUR",
    "date":2013,
    "evolution":3.75,
    "dep":369.4779116,
    "arr_brut":249000,
    "dep_brut":92,
    "pop":0.54,
    "nom_complet":"Republiek Suriname",
    "superficie":"163 270 km2",
    "etat":"Republique",
    "langue":"Neerlandais"
  },
  {
    "pays":"VEN",
    "date":1996,
    "evolution":8.42857142857143,
    "dep":1351.778656,
    "arr_brut":759000,
    "dep_brut":1026,
    "pop":22.56,
    "nom_complet":"Republica Bolivariana de Venezuela",
    "superficie":"916 445 km2",
    "etat":"Republique federale",
    "langue":"Espagnol"
  },
  {
    "pays":"VEN",
    "date":1997,
    "evolution":7.2463768115942,
    "dep":765.3562654,
    "arr_brut":814000,
    "dep_brut":623,
    "pop":23.02,
    "nom_complet":"Republica Bolivariana de Venezuela",
    "superficie":"916 445 km2",
    "etat":"Republique federale",
    "langue":"Espagnol"
  },
  {
    "pays":"VEN",
    "date":1998,
    "evolution":-15.8476658476658,
    "dep":1122.627737,
    "arr_brut":685000,
    "dep_brut":769,
    "pop":23.48,
    "nom_complet":"Republica Bolivariana de Venezuela",
    "superficie":"916 445 km2",
    "etat":"Republique federale",
    "langue":"Espagnol"
  },
  {
    "pays":"VEN",
    "date":1999,
    "evolution":-14.3065693430657,
    "dep":1095.400341,
    "arr_brut":587000,
    "dep_brut":643,
    "pop":23.95,
    "nom_complet":"Republica Bolivariana de Venezuela",
    "superficie":"916 445 km2",
    "etat":"Republique federale",
    "langue":"Espagnol"
  },
  {
    "pays":"VEN",
    "date":2000,
    "evolution":-20.1022146507666,
    "dep":1000,
    "arr_brut":469000,
    "dep_brut":469,
    "pop":24.41,
    "nom_complet":"Republica Bolivariana de Venezuela",
    "superficie":"916 445 km2",
    "etat":"Republique federale",
    "langue":"Espagnol"
  },
  {
    "pays":"VEN",
    "date":2001,
    "evolution":24.5202558635394,
    "dep":1159.246575,
    "arr_brut":584000,
    "dep_brut":677,
    "pop":24.87,
    "nom_complet":"Republica Bolivariana de Venezuela",
    "superficie":"916 445 km2",
    "etat":"Republique federale",
    "langue":"Espagnol"
  },
  {
    "pays":"VEN",
    "date":2002,
    "evolution":-26.027397260274,
    "dep":1120.37037,
    "arr_brut":432000,
    "dep_brut":484,
    "pop":25.33,
    "nom_complet":"Republica Bolivariana de Venezuela",
    "superficie":"916 445 km2",
    "etat":"Republique federale",
    "langue":"Espagnol"
  },
  {
    "pays":"VEN",
    "date":2003,
    "evolution":-21.9907407407407,
    "dep":1121.661721,
    "arr_brut":337000,
    "dep_brut":378,
    "pop":25.8,
    "nom_complet":"Republica Bolivariana de Venezuela",
    "superficie":"916 445 km2",
    "etat":"Republique federale",
    "langue":"Espagnol"
  },
  {
    "pays":"VEN",
    "date":2004,
    "evolution":44.213649851632,
    "dep":1139.917695,
    "arr_brut":486000,
    "dep_brut":554,
    "pop":26.26,
    "nom_complet":"Republica Bolivariana de Venezuela",
    "superficie":"916 445 km2",
    "etat":"Republique federale",
    "langue":"Espagnol"
  },
  {
    "pays":"VEN",
    "date":2005,
    "evolution":45.2674897119342,
    "dep":1022.66289,
    "arr_brut":706000,
    "dep_brut":722,
    "pop":26.73,
    "nom_complet":"Republica Bolivariana de Venezuela",
    "superficie":"916 445 km2",
    "etat":"Republique federale",
    "langue":"Espagnol"
  },
  {
    "pays":"VEN",
    "date":2006,
    "evolution":5.94900849858357,
    "dep":1127.005348,
    "arr_brut":748000,
    "dep_brut":843,
    "pop":27.19,
    "nom_complet":"Republica Bolivariana de Venezuela",
    "superficie":"916 445 km2",
    "etat":"Republique federale",
    "langue":"Espagnol"
  },
  {
    "pays":"VEN",
    "date":2007,
    "evolution":1.06951871657754,
    "dep":1285.714286,
    "arr_brut":756000,
    "dep_brut":972,
    "pop":27.66,
    "nom_complet":"Republica Bolivariana de Venezuela",
    "superficie":"916 445 km2",
    "etat":"Republique federale",
    "langue":"Espagnol"
  },
  {
    "pays":"VEN",
    "date":2008,
    "evolution":-7.53968253968254,
    "dep":1569.384835,
    "arr_brut":699000,
    "dep_brut":1097,
    "pop":28.12,
    "nom_complet":"Republica Bolivariana de Venezuela",
    "superficie":"916 445 km2",
    "etat":"Republique federale",
    "langue":"Espagnol"
  },
  {
    "pays":"VEN",
    "date":2009,
    "evolution":-19.5994277539342,
    "dep":1877.224199,
    "arr_brut":562000,
    "dep_brut":1055,
    "pop":28.58,
    "nom_complet":"Republica Bolivariana de Venezuela",
    "superficie":"916 445 km2",
    "etat":"Republique federale",
    "langue":"Espagnol"
  },
  {
    "pays":"VEN",
    "date":2010,
    "evolution":-6.40569395017794,
    "dep":1509.505703,
    "arr_brut":526000,
    "dep_brut":794,
    "pop":29.04,
    "nom_complet":"Republica Bolivariana de Venezuela",
    "superficie":"916 445 km2",
    "etat":"Republique federale",
    "langue":"Espagnol"
  },
  {
    "pays":"VEN",
    "date":2011,
    "evolution":13.1178707224335,
    "dep":1352.941176,
    "arr_brut":595000,
    "dep_brut":805,
    "pop":29.5,
    "nom_complet":"Republica Bolivariana de Venezuela",
    "superficie":"916 445 km2",
    "etat":"Republique federale",
    "langue":"Espagnol"
  },
  {
    "pays":"VEN",
    "date":2012,
    "evolution":66.0504201680672,
    "dep":914.9797571,
    "arr_brut":988000,
    "dep_brut":904,
    "pop":29.95,
    "nom_complet":"Republica Bolivariana de Venezuela",
    "superficie":"916 445 km2",
    "etat":"Republique federale",
    "langue":"Espagnol"
  },
  {
    "pays":"VEN",
    "date":2013,
    "evolution":-0.202429149797571,
    "dep":null,
    "arr_brut":986000,
    "dep_brut":null,
    "pop":30.41,
    "nom_complet":"Republica Bolivariana de Venezuela",
    "superficie":"916 445 km2",
    "etat":"Republique federale",
    "langue":"Espagnol"
  },
  {
    "pays":"AMS",
    "date":1996,
    "evolution":4.28778450259995,
    "dep":794.834069,
    "arr_brut":12234000,
    "dep_brut":794.834069,
    "pop":327.17,
    "nom_complet":"",
    "superficie":"",
    "etat":"",
    "langue":""
  },
  {
    "pays":"AMS",
    "date":1997,
    "evolution":7.01324178518882,
    "dep":767.797128,
    "arr_brut":13092000,
    "dep_brut":767.797128,
    "pop":332.45,
    "nom_complet":"",
    "superficie":"",
    "etat":"",
    "langue":""
  },
  {
    "pays":"AMS",
    "date":1998,
    "evolution":16.1472655056523,
    "dep":648.1651979,
    "arr_brut":15206000,
    "dep_brut":648.1651979,
    "pop":337.72,
    "nom_complet":"",
    "superficie":"",
    "etat":"",
    "langue":""
  },
  {
    "pays":"AMS",
    "date":1999,
    "evolution":-2.68315138761015,
    "dep":653.5342614,
    "arr_brut":14798000,
    "dep_brut":653.5342614,
    "pop":342.94,
    "nom_complet":"",
    "superficie":"",
    "etat":"",
    "langue":""
  },
  {
    "pays":"AMS",
    "date":2000,
    "evolution":2.41248817407758,
    "dep":697.7895084,
    "arr_brut":15155000,
    "dep_brut":697.7895084,
    "pop":348.08,
    "nom_complet":"",
    "superficie":"",
    "etat":"",
    "langue":""
  },
  {
    "pays":"AMS",
    "date":2001,
    "evolution":-4.33520290333223,
    "dep":699.8206649,
    "arr_brut":14498000,
    "dep_brut":699.8206649,
    "pop":353.14,
    "nom_complet":"",
    "superficie":"",
    "etat":"",
    "langue":""
  },
  {
    "pays":"AMS",
    "date":2002,
    "evolution":-11.9257828666023,
    "dep":687.837732,
    "arr_brut":12769000,
    "dep_brut":687.837732,
    "pop":358.12,
    "nom_complet":"",
    "superficie":"",
    "etat":"",
    "langue":""
  },
  {
    "pays":"AMS",
    "date":2003,
    "evolution":8.84955752212389,
    "dep":725.0161882,
    "arr_brut":13899000,
    "dep_brut":725.0161882,
    "pop":363.01,
    "nom_complet":"",
    "superficie":"",
    "etat":"",
    "langue":""
  },
  {
    "pays":"AMS",
    "date":2004,
    "evolution":17.1810921649039,
    "dep":752.2564008,
    "arr_brut":16287000,
    "dep_brut":752.2564008,
    "pop":367.76,
    "nom_complet":"",
    "superficie":"",
    "etat":"",
    "langue":""
  },
  {
    "pays":"AMS",
    "date":2005,
    "evolution":11.9236200650826,
    "dep":796.3684239,
    "arr_brut":18229000,
    "dep_brut":796.3684239,
    "pop":372.38,
    "nom_complet":"",
    "superficie":"",
    "etat":"",
    "langue":""
  },
  {
    "pays":"AMS",
    "date":2006,
    "evolution":8.19573207526469,
    "dep":849.1608782,
    "arr_brut":19723000,
    "dep_brut":849.1608782,
    "pop":376.85,
    "nom_complet":"",
    "superficie":"",
    "etat":"",
    "langue":""
  },
  {
    "pays":"AMS",
    "date":2007,
    "evolution":6.47974446078183,
    "dep":943.2407981,
    "arr_brut":21001000,
    "dep_brut":943.2407981,
    "pop":381.17,
    "nom_complet":"",
    "superficie":"",
    "etat":"",
    "langue":""
  },
  {
    "pays":"AMS",
    "date":2008,
    "evolution":3.7093471739441,
    "dep":1025.022957,
    "arr_brut":21780000,
    "dep_brut":1025.022957,
    "pop":385.39,
    "nom_complet":"",
    "superficie":"",
    "etat":"",
    "langue":""
  },
  {
    "pays":"AMS",
    "date":2009,
    "evolution":-2.25436179981635,
    "dep":1006.012495,
    "arr_brut":21289000,
    "dep_brut":1006.012495,
    "pop":389.59,
    "nom_complet":"",
    "superficie":"",
    "etat":"",
    "langue":""
  },
  {
    "pays":"AMS",
    "date":2010,
    "evolution":5.30320822960214,
    "dep":1040.413953,
    "arr_brut":22418000,
    "dep_brut":1040.413953,
    "pop":393.79,
    "nom_complet":"",
    "superficie":"",
    "etat":"",
    "langue":""
  },
  {
    "pays":"AMS",
    "date":2011,
    "evolution":12.0528147024712,
    "dep":1051.791401,
    "arr_brut":25120000,
    "dep_brut":1051.791401,
    "pop":398.01,
    "nom_complet":"",
    "superficie":"",
    "etat":"",
    "langue":""
  },
  {
    "pays":"AMS",
    "date":2012,
    "evolution":5.84394904458599,
    "dep":1018.128479,
    "arr_brut":26588000,
    "dep_brut":1018.128479,
    "pop":402.26,
    "nom_complet":"",
    "superficie":"",
    "etat":"",
    "langue":""
  },
  {
    "pays":"AMS",
    "date":2013,
    "evolution":1.93320294869866,
    "dep":999.6679212,
    "arr_brut":27102000,
    "dep_brut":999.6679212,
    "pop":406.49,
    "nom_complet":"",
    "superficie":"",
    "etat":"",
    "langue":""
  }
]