{
"type": "FeatureCollection",
"crs": { "type": "name", "properties": { "name": "urn:ogc:def:crs:OGC:1.3:CRS84" } },
                                                                                
"features": [
{ "type": "Feature", "properties": { "Nom_pays": "Guyane", "Code_pays": "FRA", "e_1996": null, "e_1997": null, "e_1998": null, "e_1999": null, "e_2000": null, "e_2001": null, "e_2002": null, "e_2003": null, "e_2004": null, "e_2005": null, "e_2006": null, "e_2007": null, "e_2008": null, "e_2009": null, "e_2010": null, "e_2011": null, "e_2012": null, "e_2013": null, "d_1996": null, "d_1997": null, "d_1998": null, "d_1999": null, "d_2000": null, "d_2001": null, "d_2002": null, "d_2003": null, "d_2004": null, "d_2005": null, "d_2006": null, "d_2007": null, "d_2008": null, "d_2009": null, "d_2010": null, "d_2011": null, "d_2012": null, "d_2013": null }, "geometry": { "type": "Polygon", "coordinates": [ [ [ -52.556424730018392, 2.504705308437053 ], [ -52.939657151894977, 2.124857692875622 ], [ -53.418465135295264, 2.053389187016038 ], [ -53.554839240113495, 2.334896551925965 ], [ -53.778520677288896, 2.376702785650053 ], [ -54.088062506717279, 2.105556545414629 ], [ -54.524754197799751, 2.311848863123785 ], [ -54.271229620975788, 2.738747870286943 ], [ -54.18428402364475, 3.194172268075235 ], [ -54.011503872276819, 3.622569891774859 ], [ -54.399542202356514, 4.212611395683481 ], [ -54.478632981979217, 4.896755682795643 ], [ -53.958044603070931, 5.756548163267809 ], [ -53.618452928264844, 5.646529038918402 ], [ -52.882141282754077, 5.409850979021599 ], [ -51.82334286152593, 4.565768133966145 ], [ -51.657797410678882, 4.156232408053029 ], [ -52.249337531123984, 3.241094468596288 ], [ -52.556424730018392, 2.504705308437053 ] ] ] } },
{ "type": "Feature", "properties": { "Nom_pays": "Costa Rica", "Code_pays": "CRI", "e_1996": null, "e_1997": null, "e_1998": null, "e_1999": null, "e_2000": null, "e_2001": null, "e_2002": null, "e_2003": null, "e_2004": null, "e_2005": null, "e_2006": null, "e_2007": null, "e_2008": null, "e_2009": null, "e_2010": null, "e_2011": null, "e_2012": null, "e_2013": null, "d_1996": null, "d_1997": null, "d_1998": null, "d_1999": null, "d_2000": null, "d_2001": null, "d_2002": null, "d_2003": null, "d_2004": null, "d_2005": null, "d_2006": null, "d_2007": null, "d_2008": null, "d_2009": null, "d_2010": null, "d_2011": null, "d_2012": null, "d_2013": null }, "geometry": { "type": "Polygon", "coordinates": [ [ [ -82.965783047197363, 8.225027980985985 ], [ -83.508437262694315, 8.446926581247283 ], [ -83.711473965169077, 8.656836249216866 ], [ -83.596313035806645, 8.830443223501419 ], [ -83.632641567707836, 9.051385809765321 ], [ -83.909885626953738, 9.290802720573581 ], [ -84.303401658856359, 9.487354030795714 ], [ -84.647644212568665, 9.615537421095709 ], [ -84.713350796227772, 9.908051866083852 ], [ -84.975660366541334, 10.086723130733006 ], [ -84.91137488477024, 9.795991522658923 ], [ -85.11092342806532, 9.55703969974131 ], [ -85.339488288092269, 9.83454214114866 ], [ -85.66078650586698, 9.933347479690724 ], [ -85.797444831062847, 10.134885565629034 ], [ -85.791708747078431, 10.439337266476613 ], [ -85.659313727546674, 10.754330959511719 ], [ -85.941725430021762, 10.895278428587801 ], [ -85.712540452807303, 11.088444932494824 ], [ -85.561851976244199, 11.217119248901597 ], [ -84.903003302738952, 10.952303371621896 ], [ -84.673069017256267, 11.082657172078143 ], [ -84.35593075228104, 10.999225572142905 ], [ -84.19017859570485, 10.793450018756674 ], [ -83.895054490885954, 10.726839097532446 ], [ -83.655611741861577, 10.938764146361422 ], [ -83.402319708982958, 10.395438137244653 ], [ -83.015676642575173, 9.992982082555557 ], [ -82.546196255203483, 9.566134751824677 ], [ -82.932890998043575, 9.476812038608173 ], [ -82.927154914059159, 9.074330145702916 ], [ -82.719183112300527, 8.925708726431495 ], [ -82.868657192704774, 8.807266343618522 ], [ -82.829770677405165, 8.62629547773237 ], [ -82.913176439124214, 8.42351715741907 ], [ -82.965783047197363, 8.225027980985985 ] ] ] } },
{ "type": "Feature", "properties": { "Nom_pays": "Falkland Islands", "Code_pays": "FLK", "e_1996": null, "e_1997": null, "e_1998": null, "e_1999": null, "e_2000": null, "e_2001": null, "e_2002": null, "e_2003": null, "e_2004": null, "e_2005": null, "e_2006": null, "e_2007": null, "e_2008": null, "e_2009": null, "e_2010": null, "e_2011": null, "e_2012": null, "e_2013": null, "d_1996": null, "d_1997": null, "d_1998": null, "d_1999": null, "d_2000": null, "d_2001": null, "d_2002": null, "d_2003": null, "d_2004": null, "d_2005": null, "d_2006": null, "d_2007": null, "d_2008": null, "d_2009": null, "d_2010": null, "d_2011": null, "d_2012": null, "d_2013": null }, "geometry": { "type": "Polygon", "coordinates": [ [ [ -61.2, -51.85 ], [ -60.0, -51.25 ], [ -59.15, -51.5 ], [ -58.55, -51.1 ], [ -57.75, -51.55 ], [ -58.05, -51.9 ], [ -59.4, -52.2 ], [ -59.85, -51.85 ], [ -60.7, -52.3 ], [ -61.2, -51.85 ] ] ] } },
{ "type": "Feature", "properties": { "Nom_pays": "Nicaragua", "Code_pays": "NIC", "e_1996": null, "e_1997": null, "e_1998": null, "e_1999": null, "e_2000": null, "e_2001": null, "e_2002": null, "e_2003": null, "e_2004": null, "e_2005": null, "e_2006": null, "e_2007": null, "e_2008": null, "e_2009": null, "e_2010": null, "e_2011": null, "e_2012": null, "e_2013": null, "d_1996": null, "d_1997": null, "d_1998": null, "d_1999": null, "d_2000": null, "d_2001": null, "d_2002": null, "d_2003": null, "d_2004": null, "d_2005": null, "d_2006": null, "d_2007": null, "d_2008": null, "d_2009": null, "d_2010": null, "d_2011": null, "d_2012": null, "d_2013": null }, "geometry": { "type": "Polygon", "coordinates": [ [ [ -85.712540452807303, 11.088444932494824 ], [ -86.058488328785259, 11.403438625529944 ], [ -86.525849982432959, 11.806876532432597 ], [ -86.745991583996329, 12.143961900272487 ], [ -87.16751624220116, 12.458257961471658 ], [ -87.668493415054712, 12.909909979702633 ], [ -87.557466600275617, 13.064551703336065 ], [ -87.392386237319229, 12.914018256069838 ], [ -87.316654425795491, 12.984685777228975 ], [ -87.005769009127576, 13.025794379117158 ], [ -86.880557013684367, 13.254204209847245 ], [ -86.733821784191605, 13.263092556201443 ], [ -86.75508663607971, 13.754845485890913 ], [ -86.520708177419905, 13.778487453664439 ], [ -86.312142096689925, 13.77135610600817 ], [ -86.096263800790595, 14.038187364147248 ], [ -85.80129472526859, 13.836054999237589 ], [ -85.698665330736929, 13.960078436738087 ], [ -85.514413011400251, 14.079011745657837 ], [ -85.165364549484806, 14.35436961512508 ], [ -85.148750576502962, 14.560196844943617 ], [ -85.052787441736939, 14.551541042534723 ], [ -84.924500698572402, 14.79049286545235 ], [ -84.82003679069436, 14.819586696832671 ], [ -84.649582078779616, 14.666805324761754 ], [ -84.449335903648603, 14.621614284722497 ], [ -84.228341640952408, 14.748764146376658 ], [ -83.97572140169359, 14.749435939996461 ], [ -83.628584967772923, 14.880073960830302 ], [ -83.489988776366118, 15.016267198135537 ], [ -83.147219000974133, 14.995829169164111 ], [ -83.233234422523935, 14.899866034398102 ], [ -83.284161546547594, 14.676623846897201 ], [ -83.182126430987282, 14.31070302983845 ], [ -83.412499966144452, 13.970077826386557 ], [ -83.519831916014681, 13.567699286345883 ], [ -83.552207200845544, 13.127054348193086 ], [ -83.498515387694269, 12.869292303921227 ], [ -83.473323126951982, 12.419087225794428 ], [ -83.626104499022915, 12.320850328007566 ], [ -83.719613003255063, 11.893124497927728 ], [ -83.650857510090717, 11.62903209070012 ], [ -83.855470343750397, 11.373311265503787 ], [ -83.808935716471552, 11.103043524617275 ], [ -83.655611741861577, 10.938764146361422 ], [ -83.895054490885954, 10.726839097532446 ], [ -84.19017859570485, 10.793450018756674 ], [ -84.35593075228104, 10.999225572142905 ], [ -84.673069017256267, 11.082657172078143 ], [ -84.903003302738952, 10.952303371621896 ], [ -85.561851976244199, 11.217119248901597 ], [ -85.712540452807303, 11.088444932494824 ] ] ] } },
{ "type": "Feature", "properties": { "Nom_pays": "Panama", "Code_pays": "PAN", "e_1996": null, "e_1997": null, "e_1998": null, "e_1999": null, "e_2000": null, "e_2001": null, "e_2002": null, "e_2003": null, "e_2004": null, "e_2005": null, "e_2006": null, "e_2007": null, "e_2008": null, "e_2009": null, "e_2010": null, "e_2011": null, "e_2012": null, "e_2013": null, "d_1996": null, "d_1997": null, "d_1998": null, "d_1999": null, "d_2000": null, "d_2001": null, "d_2002": null, "d_2003": null, "d_2004": null, "d_2005": null, "d_2006": null, "d_2007": null, "d_2008": null, "d_2009": null, "d_2010": null, "d_2011": null, "d_2012": null, "d_2013": null }, "geometry": { "type": "Polygon", "coordinates": [ [ [ -77.881571417945253, 7.223771267114785 ], [ -78.214936082660117, 7.512254950384161 ], [ -78.429160732726075, 8.052041123888927 ], [ -78.182095709938636, 8.319182440621773 ], [ -78.435465257465694, 8.387705389840789 ], [ -78.622120530903942, 8.718124497915028 ], [ -79.120307176413746, 8.996092027213024 ], [ -79.55787736684519, 8.932374986197146 ], [ -79.760578172510051, 8.584515082224399 ], [ -80.164481167303336, 8.333315944853595 ], [ -80.382659064439622, 8.298408514840432 ], [ -80.4806892564973, 8.090307522001069 ], [ -80.003689948227162, 7.547524115423372 ], [ -80.276670701808996, 7.419754136581716 ], [ -80.42115800649708, 7.271571966984765 ], [ -80.886400926420805, 7.220541490096537 ], [ -81.059542812814726, 7.817921047390597 ], [ -81.189715745757951, 7.64790558515034 ], [ -81.51951473664468, 7.706610012233909 ], [ -81.721311204744467, 8.108962714058436 ], [ -82.131441209628917, 8.175392767769637 ], [ -82.390934414382571, 8.292362372262289 ], [ -82.82008134635042, 8.290863755725823 ], [ -82.850958014644817, 8.073822740099956 ], [ -82.965783047197363, 8.225027980985985 ], [ -82.913176439124214, 8.42351715741907 ], [ -82.829770677405165, 8.62629547773237 ], [ -82.868657192704774, 8.807266343618522 ], [ -82.719183112300527, 8.925708726431495 ], [ -82.927154914059159, 9.074330145702916 ], [ -82.932890998043575, 9.476812038608173 ], [ -82.546196255203483, 9.566134751824677 ], [ -82.187122565423408, 9.207448635286781 ], [ -82.207586432610967, 8.9955752628901 ], [ -81.808566860669288, 8.950616766796173 ], [ -81.714154018872037, 9.031955471223583 ], [ -81.439287075511544, 8.786234035675719 ], [ -80.947301601876759, 8.858503526235907 ], [ -80.521901211250082, 9.111072089062432 ], [ -79.914599778955989, 9.312765204297619 ], [ -79.573302781884308, 9.611610012241528 ], [ -79.021191779277927, 9.552931423374105 ], [ -79.058450486960368, 9.454565334506526 ], [ -78.500887620747193, 9.420458889193881 ], [ -78.055927700498017, 9.247730414258299 ], [ -77.729513515926413, 8.946844387238869 ], [ -77.353360765273862, 8.67050466555807 ], [ -77.474722866511328, 8.524286200388218 ], [ -77.242566494440084, 7.935278225125444 ], [ -77.431107957656991, 7.638061224798734 ], [ -77.753413865861404, 7.709839789252143 ], [ -77.881571417945253, 7.223771267114785 ] ] ] } }
]
}